{
  "context": {
    "title": "ESI Mode",
    "choiceGroup": {
      "label": "ESI Mode",
      "type": "radio",
      "choices": [
        {
          "id": "check1",
          "label": "Positive",
          "name": "check",
          "value": "option-1"
        },
        {
          "id": "check2",
          "label": "Negative",
          "name": "check",
          "value": "option-2"
        }
      ]
    }
  }
}
